<svg xmlns="http://www.w3.org/2000/svg" width="18.769" height="16.68" viewBox="0 0 18.769 16.68">
  <path id="Icon_awesome-edit" data-name="Icon awesome-edit" d="M13.118,2.715l2.939,2.939a.319.319,0,0,1,0,.45L8.941,13.22l-3.024.336a.634.634,0,0,1-.7-.7l.336-3.024,7.116-7.116A.319.319,0,0,1,13.118,2.715ZM18.4,1.969,16.807.378a1.274,1.274,0,0,0-1.8,0L13.855,1.532a.319.319,0,0,0,0,.45l2.939,2.939a.319.319,0,0,0,.45,0L18.4,3.767a1.274,1.274,0,0,0,0-1.8Zm-5.885,9.316V14.6H2.085V4.175H9.573a.4.4,0,0,0,.277-.114l1.3-1.3a.391.391,0,0,0-.277-.668H1.564A1.564,1.564,0,0,0,0,3.653v11.47a1.564,1.564,0,0,0,1.564,1.564h11.47A1.564,1.564,0,0,0,14.6,15.123V9.981A.392.392,0,0,0,13.93,9.7l-1.3,1.3A.4.4,0,0,0,12.512,11.284Z" transform="translate(0 -0.007)" fill="#0033a1"/>
</svg>
