<svg xmlns="http://www.w3.org/2000/svg" width="15.179" height="18.984" viewBox="0 0 15.179 18.984">
  <g id="Icon_ionic-ios-notifications" data-name="Icon ionic-ios-notifications" transform="translate(-6.761 -3.93)">
    <path id="Path_4630" data-name="Path 4630" d="M16.891,30.851a2.237,2.237,0,0,0,2.282-2.515H14.6A2.238,2.238,0,0,0,16.891,30.851Z" transform="translate(-2.55 -7.936)" fill="#1f1f1f"/>
    <path id="Path_4631" data-name="Path 4631" d="M21.747,17.989c-.731-.963-2.168-1.528-2.168-5.841,0-4.427-1.955-6.206-3.777-6.633-.171-.043-.294-.1-.294-.28V5.1a1.158,1.158,0,1,0-2.315,0v.138c0,.176-.123.237-.294.28-1.827.432-3.777,2.206-3.777,6.633,0,4.313-1.438,4.873-2.168,5.841A.942.942,0,0,0,7.707,19.5H21A.942.942,0,0,0,21.747,17.989Z" fill="#1f1f1f"/>
  </g>
</svg>
